>>>isItPossible([-917085, 649769, -436920, 697311, -680953, 769125, -833664, 235804],[428637, 561485, -857015, 287489, -779643, 702685, 871333, 620253], 0)
"CAN"

>>> isItPossible([558048, -835227, -186948, 696819, 407182, -482615, -313477, -814501, 431206, 645913, -92136, 856259, 163762, -328222, 372403, 3975, -763580, -428364, -561546],[418429, -68327, -515966, -673236, 392350, 493223, -550395, 15558, 696551, 408850, 570160, 523737, -278292, 847918, -802157, 428635, -683517, 107666, 267088], 0)
"CAN"
        
>>> isItPossible([-14175, 867591, 646432, -353746, 934509, 22474, -91005, -7405, 8027, 501391, 908960, -135887, -766153, -978938, 74459, -599028, 562987, 713174, 204115, 217543, 743400, 934698, 857323, -924265, 300300, 563158, -385643, 494373, -645985, 298205, -390453, 156855, 250380, 217474, 300078, -966207, -554755, -832793, -318909, -302223],[-631165, 749490, -478390, 167237, -518953, -198495, -227676, -58221, -238636, 193011, 366214, 982731, -702504, -697647, 981095, 759077, -919978, 945331, 313131, -631940, -216704, -779133, 647609, -436669, -197026, 994955, 52553, -445766, -399991, 716766, -620813, 478302, -18384, 771918, -213967, 9275, -260443, -880193, -158582, -825698], 0)
"CAN"
        
>>> isItPossible([-547642, -808469, -724062, 923411, -173038, 792942, 274034, 682638, 333104, 808919, 127177, -98610, 115693, -140736, -49792, -571559, 763019, -175316, -423215, -186517, 669365, 145848, -901969, -144044, 256932, -914456],[-17123, 256454, -729888, -155136, 427509, 815993, 332053, -413389, 718045, -94962, -999456, -192966, -748197, -595096, -613162, 286241, 58061, 922843, -527063, 951975, 837509, -472829, 868922, 350543, 767666, -738677], 0)
"CAN"
        
>>> isItPossible([638930, -695919, 957248, 256724, 491081, -898394, -679076, 234549, -715779, -154240, 795914, 578459, -892713, 518021, -917454, 122522, 444748, -816890, 824175, -306438, 52834, 414881, 293677, -623103],[-845139, -991043, -145590, -228248, -246636, -65112, 183422, 627179, 522146, 713858, 749738, 181478, -156056, -904703, 262597, 305611, -917709, -356398, 602288, 798138, 884764, 261077, 81370, -738762], 1)
"CAN"
        
>>> isItPossible([-926869, -373318, -307603, -142992, -203951, -528360, 801755, -132305, 27316, -211528, -842903, 714445, 628085, 36906, -842822, 586257, -351677, -141031, -151564],[131590, -893408, 277970, -629154, 966758, -455701, 52232, 159360, -640999, -730343, -348696, -651710, 896381, -441004, -48036, 650318, 842338, -591171, -176888], 0)
"CAN"
        

>>> isItPossible([-855764, 896989, -839899, -637235, -699800, 406503, -974092],[220590, 502226, -848281, 976185, 382585, -397666, 281689], 0)
"CAN"
        
>>> isItPossible([613002, -307615, 434011, -134208, -238661, 717597, -311030, 19900, -169459, -575204, -66601, -782476, -926114, 748128, -909571, 287866, -369444, 627728, 200993],[-923121, -567140, 377239, -514815, 159522, 247134, -522394, 325159, 933409, -277100, -333105, -263063, -139505, -939841, -94639, 670139, 485805, -732869, 793304], 1)
"CAN"
       
>>> isItPossible([440700, 71192, 508071, -224710, 549086, 590377, 326615, -67803, -485053, 665053, -979894, -747257, -332876, 427017, 130025, -778062, -965827, 790945, 589953, -501070, -733776, 409064, 738766, 294245, 853566, 843099, 279376, -582823, -832945, 576666, 510448, -57319, 664762, 770652, -294771, -221173, -882785, -983911, -754224, 678188, -108192, 810005, -712364, -371583, 149175, 806534, 624674],[691494, 168178, -363054, -875305, -243022, -271852, 633118, -424629, 532040, -123873, -198267, -799246, -678131, 627057, -97290, -705804, -593044, -801215, -161448, 818402, 359196, 333897, -819765, -738564, 398100, -937211, 221598, 982852, -378562, 728364, 76582, -896458, 572247, -85669, 188509, 696584, 151947, -466067, 290741, -299178, -555911, 415460, -234300, -376090, 617994, 724957, 233379], 0)
"CAN"

>>> isItPossible([620628, -912494, 259202, -76997, 616756, 322337, 628106, 123568, -979484],[-706604, -341479, 893235, -21660, 834892, -62601, -891683, 867985, 797437], 0)
"CAN"
        
>>> isItPossible([-549293, 690861, 737063, -268561, 693863, -692890, 312384, 414237, -923708, -112535, 325215, 588262, -721615, -859243, -543902, -624071, 899388, -623097, -333913, 485849, -767322, -972504, 561697, -297308, -58226, -105117, -671121, -689855, 520636, -597063, 563140, -130994, -359858, 720360, -76215, 95271, 392995, -865857, 601536, -751470, 628031, 999804, 691095, 507751, -824105, -328066, 137029, -172735, -239799],[-361133, -872342, -835161, 779034, 312424, -449361, 156029, -472325, -222154, 531242, 896003, 745050, -654406, 855870, -54195, 22721, -881202, 745394, 257445, -722865, -898250, 701522, 845255, -603546, 642408, -65681, -625897, -448467, 578351, -604378, -982905, -407716, -124973, -991806, 2316, -127432, 829896, 476930, -62138, -796643, -912349, 695311, 944096, 544317, 873941, -123754, 429706, -438701, 683954], 1)
"CAN"


>>> isItPossible([60680, 303689, 794843, -99838, 257956, -781259, 121890, 155926, 67446, 62941, -42672, -389715, -272685, 371119, -911685, 976884, -378796, 271292, -319899, 549996, -965740, 236959, 604424, -233971, -41360, -252461, -114416, -511970, -322515, 691811, -436787, -570820, 173903, 927590, -126513, -694543, 417885, 743908, 450858, -230167, -78802],[410463, -732518, -155228, -607719, 409851, 437340, -988441, -376867, -713917, -104478, -97755, -939312, 507752, -411176, 91216, 684261, -75249, 718819, 18696, 929599, 235955, 174454, 31127, 768062, -348949, -762094, -545399, -963203, -925782, 113808, -438450, 1633, -710372, 815363, -393848, -856022, -709760, -193169, -660257, 910336, 524757], 1 )
"CAN"

>>> isItPossible([478885, 782094, -65997, -875627, -631187, 704466, -579668, -526520, -426357, -499054, -780163, -751311, 358208, 143920, -39219, 22662, 368256, 149605, -254690, 944694, -693133, -372373, 425324, 584744],[-886114, 550513, -876018, -762238, -531840, -896301, -475519, -283301, 624480, -830059, -143502, 197802, -274719, -5785, 309326, -698183, 947313, -895700, -474383, 487365, 188702, 568346, -837741, 489287], 1 )
"CAN"


>>> isItPossible([-92684, -208874, 247940, 521350, 784122, 641308, -26730, 532558, 557511, -496576, 557383, -139580, 843815, 337281, 581913, 117223, 645305, 959124, 128552, -282947, 997950, -659203],[-498123, -517931, -579373, 807543, 916155, -214957, 676835, -598403, -939618, 897045, 597826, -215913, 27096, -669820, 445986, -625556, -633280, -896809, -782933, -355656, -287053, 105392], 1)
"CAN"
   
>>> isItPossible([-813761, 362771, 511664, -388556, 216188, 903271, 191024, 977871],[437202, 383918, 426747, 728649, -894861, -940666, 708263, 23642], 1)
"CAN"
        
>>> isItPossible([127326, -611493, 142501, 943696, -550356, -892139, -142196, 656461, 637937, -962566, -407859, -360843, 180481, 45717, -957130, 438821, 50998, -798454, 324904, 956104, 681547, -98868, 35191, -357564, -694563, -742803, 363469, 246197, 370269, 43910, -991012, 152670, 912144, -145935, 569397, -943005, -720676, -661467, 149336, -738933, -271127, 803512, 74975, -326781, -894446, 442371, 220313, 438390],[-657779, 127782, -417556, -734119, 82927, -936456, 659895, 267598, -596600, 975075, 830996, -609534, -714286, 468424, -485865, 533428, 436691, 7197, -678251, 380645, -846106, -13003, -767526, -105131, 713064, 821778, 171484, -646162, -479672, 936119, 850425, 84537, -348695, 838512, 300674, -571618, 858921, -839186, 14767, -925396, -985336, 627127, -464952, -885322, 225353, -769232, -294282, -915885], 1 )
"CAN"
        
>>> isItPossible([541933, -895875, 910943, 727259, 887816, 680630, 952785, 450943, -522091, 6820, -7350, -395485, 33472, -935983, -449829, -846242, 427458, 60036, 242743, -239112, -420356, -257290, 220581, -876762, -684279, -50937, 260003, -866620, -648250, -173799, 528619, -940709, -717111, 610439, 440353, 873666, 245323, -493776, 674623, -204503, 982458, -454811, 492375, -184606],[-743178, 483326, 46154, 357810, 223781, -264509, 97046, -963490, 489704, -654527, -885263, 238022, 94671, 729812, -316710, 381869, 321611, 358035, 529510, -861625, -502953, 283975, 592998, -509533, -348442, -726532, -915322, 45879, -706325, 754570, 834360, -971876, -567742, -418570, 97488, 183823, 496494, -746443, 148046, 831412, 564637, 809214, -44846, 47995], 1)
"CAN"
        
>>> isItPossible([-535941, 887414, -139275, -327613, 467503, -410690, 503638],[-696804, 384403, 725378, -998854, -713778, -646775, 964189], 1)
"CAN"
        
>>> isItPossible([800814, -783453, -973862, 425201, 935628, -856402, -546607, 447893, -364494, 300914, 286928, -965170, -529308, -646497, -352814, 999034, 642952, 520717, -978481, 43678, -397183, -103700, -653640, 421173, -797432, -293183, 661719, 458354, -368421, -7724, -297072, -632823],[-909599, -932126, 906125, -481564, -275287, -519781, -356016, -860044, 388257, -793027, -19855, 278549, -480351, -583722, 682899, 447349, -846647, 162198, -93852, 826989, -443676, -432951, 656043, -884188, 336421, 263466, 355650, -286477, -786310, 598787, 257921, -275554], 1)
"CAN"
        
>>> isItPossible([212867, 383260, -869298, 933693, 985610, 324811, -80533, 822978, -321697, 805112, 990922, 54943, -638746, 152536, 552105, -343114, -6274, -964540, 813375, -759085, 424317, 835434, 652966, -145266, 126389, -475047, 831824, 30973, 95879, -10497, 72586, -442188, 8244, 985268, -253858, -545881, -903319, -325474, -385413, 717002, -497065, -396717],[-397238, 360715, 603509, 65312, 348059, 231766, -398506, -132057, -263602, 880939, 955547, 565288, 944335, 415387, -169016, -132747, 971307, 683433, -555498, 815370, 37906, 738575, 222575, -622633, -83804, -303674, 467825, 182536, 554852, 624704, 386031, 43693, 27713, 507095, 475763, 434820, 396922, -828601, -947246, -768255, -984580, 614472], 1)
"CAN"
        
>>> isItPossible([-778332, -712649, -982643, 471771, -31438, -969260, 891379],[-694485, -916626, 423694, 125836, -346905, -268031, 169724], 1)
"CAN"
        
>>> isItPossible([-356510, -418627, 611938, -825585, -332420, 663487, -385680, 786555, -383378, -425197, -669052, 996192, 351786, -17156, 339685, 831449, 501889, -935076],[159775, -419892, -107101, -674522, -860785, 834572, 516825, 164122, -929409, -228656, -435567, -193805, -711433, 755279, -131356, -174018, 237866, -926269], 1)
"CAN"
        
>>> isItPossible([886921, -339365, 4672, 676777, 220834, -236088, -17132, 867532, 528854, 521758, -775478, -401333, 715234, -785109, 588560, 965872, 74262, 94132, 91055, 905526, -723346, 121022, -82412, -165286, 791845, 876975, -697399, -364735, -326125, 987779, 63383, 677094, 218020, -518039, -260717, -386203, 888001, 655856, 663668, -425358, -83114, 105423, -514543, -447989, -309782, -646625, -740653],[-194380, -320100, 962381, -30656, 596091, -275977, 704699, 437981, -881275, 287593, -787065, -853640, 97163, 577158, 310741, 879847, 374033, -66305, -866572, 638421, -908699, 128319, -476689, 900519, 567206, 208830, 421054, 816322, 478196, 320898, -780662, 518527, -938581, -983260, -743336, 418860, -144392, -944721, 511069, -902993, 932667, -547146, 525594, -516568, 60533, -645842, -163088], 1)
"CAN"
    

